[
  {
    "link": "payroll-services",
    "title": "Payroll Services",
    "actives": [
    
    ]
  },
  {
    "link": "hr-solutions",
    "title": "HR Solutions",
    "actives": [
    
    ]
  },
  {
    "link": "who-we-empower",
    "title": "Who We Empower",
    "actives": [
    
    ]
  },
  {
    "link": "why-national-peo",
    "title": "Why National PEO",
    "actives": [
    
    ]
  },
   {
    "link": "resources",
    "title": "Resources",
    "actives": [
    
    ]
  },
  {
    "link": "contact",
    "title": "Contact",
    "actives": [
    
    ]
  }
]